replay_buffer.vcd
$date
	Fri May  8 10:57:46 2020
$end

$version
	Synopsys VCS version O-2018.09-SP2-3_Full64
$end

$timescale
	1ns
$end

$comment Csum: 1 fdf3790614d474cb $end


$scope module top_tb $end
$var reg 1 ! tim_out $end
$var reg 1 " we $end
$var reg 1 # busy_n $end
$var reg 1 $ clk $end
$var reg 1 % reset_n $end
$var reg 2 & ack_nack [1:0] $end
$var reg 12 ' seq [11:0] $end
$var reg 160 ( din [159:0] $end
$var wire 16 ) dout [15:0] $end
$var wire 1 * ready $end

$scope module u1 $end
$var wire 1 # busy_n $end
$var wire 1 $ clk $end
$var wire 1 % reset_n $end
$var wire 1 ! tim_out $end
$var wire 1 " we $end
$var wire 2 & ack_nack [1:0] $end
$var wire 12 ' seq [11:0] $end
$var wire 160 ( din [159:0] $end
$var wire 16 ) dout [15:0] $end
$var wire 1 * ready $end
$var wire 4 + crc_num [3:0] $end
$var wire 16 , mux_output [15:0] $end
$var wire 12 - num_to_rep [11:0] $end
$var wire 12 . replay_index [11:0] $end
$var wire 1 / rep $end
$var wire 1 0 rdy $end
$var wire 2 1 ack_nack_internal [1:0] $end
$var wire 1 2 reset_internal $end
$var wire 1 3 we_internal $end
$var wire 1 4 rdy_internal $end
$var wire 1 5 to_internal $end

$scope module mem1 $end
$var wire 1 $ clk $end
$var wire 1 3 wr $end
$var wire 1 # en $end
$var wire 1 2 rst $end
$var wire 1 5 tim_out $end
$var wire 1 / rep $end
$var wire 2 1 rd [1:0] $end
$var wire 12 ' seq [11:0] $end
$var wire 12 . replay_index [11:0] $end
$var wire 1 6 empty $end
$var wire 1 7 full $end
$var wire 16 , data_in [15:0] $end
$var reg 16 ) data_out [15:0] $end
$var reg 1 0 rdy $end
$var reg 12 8 last_seq_written [11:0] $end
$var reg 12 - num_packets_to_replay [11:0] $end
$var reg 12 9 count [11:0] $end
$var reg 12 : read_counter [11:0] $end
$var reg 12 ; write_counter [11:0] $end
$upscope $end


$scope module control $end
$var wire 1 % reset_n $end
$var wire 1 $ clk $end
$var wire 1 # busy_n $end
$var wire 1 " we_i $end
$var wire 1 ! to_i $end
$var wire 1 0 rdy_i $end
$var wire 2 & acknak_i [1:0] $end
$var wire 12 ' seq [11:0] $end
$var wire 12 - num_to_rep [11:0] $end
$var reg 1 2 rst $end
$var reg 1 3 we_o $end
$var reg 1 5 to_o $end
$var reg 1 * rdy_o $end
$var reg 1 < busy_n_o $end
$var reg 1 / rep $end
$var reg 2 1 acknak_o [1:0] $end
$var reg 4 + crc_num [3:0] $end
$var reg 12 . count [11:0] $end
$var reg 4 = cs [3:0] $end
$var reg 4 > ns [3:0] $end
$var reg 12 ? count_to [11:0] $end
$upscope $end


$scope module mx $end
$var wire 16 @ d0 [15:0] $end
$var wire 16 A d1 [15:0] $end
$var wire 16 B d2 [15:0] $end
$var wire 16 C d3 [15:0] $end
$var wire 16 D d4 [15:0] $end
$var wire 16 E d5 [15:0] $end
$var wire 16 F d6 [15:0] $end
$var wire 16 G d7 [15:0] $end
$var wire 16 H d8 [15:0] $end
$var wire 16 I d9 [15:0] $end
$var wire 4 + s [3:0] $end
$var reg 16 , y [15:0] $end
$upscope $end

$upscope $end

$upscope $end

$enddefinitions $end

#0
$dumpvars
1#
1<
0$
0/
07
x0
0*
0%
12
x6
0!
05
0"
03
b00 &
b00 1
bxxxxxxxxxxxx .
b0000 +
b000000000000 9
bxxxxxxxxxxxx ?
b0000 =
bxxxxxxxxxxxxxxxx )
b0100000000000000000000000000000100000000000000000000000000001111111111011010111111110000010000000001001000110100010101100111100011111111111111111111111111111111 (
b000000000001 8
b0001 >
b000000000000 -
b000000000001 :
b000000000000 '
bxxxxxxxxxxxxxxxx I
bxxxxxxxxxxxxxxxx H
bxxxxxxxxxxxxxxxx G
bxxxxxxxxxxxxxxxx F
bxxxxxxxxxxxxxxxx E
bxxxxxxxxxxxxxxxx D
bxxxxxxxxxxxxxxxx C
bxxxxxxxxxxxxxxxx B
bxxxxxxxxxxxxxxxx A
bxxxxxxxxxxxxxxxx @
b000000000001 ;
b1111111111111111 ,
z4
$end
b0100000000000000 I
b0000000000000001 H
b0000000000000000 G
b0000000000001111 F
b1111110110101111 E
b1111000001000000 D
b0001001000110100 C
b0101011001111000 B
b1111111111111111 A
b1111111111111111 @
16
#1
1%
#10
1$
b0000000000000000 )
10
b0001 =
02
1*
b000000000000 .
#11
1"
b0010 >
#20
0$
0"
#30
1$
b0010 =
b0110 >
13
0*
#40
0$
#50
1$
b000000000010 ;
b000000000001 9
06
b0110 =
b0010 >
03
b000000000001 .
#60
0$
#70
1$
b0010 =
b0110 >
13
b0001 +
#80
0$
#90
1$
b000000000011 ;
b000000000010 9
b0110 =
b0010 >
03
b000000000010 .
#100
0$
#110
1$
b0010 =
b0110 >
13
b0010 +
b0101011001111000 ,
#120
0$
#130
1$
b000000000100 ;
b000000000011 9
b0110 =
b0010 >
03
b000000000011 .
#140
0$
#150
1$
b0010 =
b0110 >
13
b0011 +
b0001001000110100 ,
#160
0$
#170
1$
b000000000101 ;
b000000000100 9
b0110 =
b0010 >
03
b000000000100 .
#180
0$
#190
1$
b0010 =
b0110 >
13
b0100 +
b1111000001000000 ,
#200
0$
#210
1$
b000000000110 ;
b000000000101 9
b0110 =
b0010 >
03
b000000000101 .
#220
0$
#230
1$
b0010 =
b0110 >
13
b0101 +
b1111110110101111 ,
#240
0$
#250
1$
b000000000111 ;
b000000000110 9
b0110 =
b0010 >
03
b000000000110 .
#260
0$
#270
1$
b0010 =
b0110 >
13
b0110 +
b0000000000001111 ,
#280
0$
#290
1$
b000000001000 ;
b000000000111 9
b0110 =
b0010 >
03
b000000000111 .
#300
0$
#310
1$
b0010 =
b0110 >
13
b0111 +
b0000000000000000 ,
#320
0$
#330
1$
b000000001001 ;
b000000001000 9
b0110 =
b0010 >
03
b000000001000 .
#340
0$
#350
1$
b0010 =
b0110 >
13
b1000 +
b0000000000000001 ,
#360
0$
#370
1$
b000000001010 ;
b000000001001 9
b0110 =
b0010 >
03
b000000001001 .
#380
0$
#390
1$
b0010 =
b0110 >
13
b1001 +
b0100000000000000 ,
#400
0$
#410
1$
b000000001011 ;
b000000000010 8
b000000001010 9
b0110 =
b0001 >
03
b000000001010 .
#420
0$
#430
1$
b0001 =
1*
b000000000000 .
#440
0$
#450
1$
#460
0$
#461
b0000000000000000000000000000000100000000000000000000110000001111111111011010111111110000010000000000000000000000000000000000000011111111111111111111111111111111 (
b0000000000000000 I
b0000110000001111 F
b0000000000000000 C
b0000000000000000 B
1"
b0000000000000000 ,
b0010 >
#470
1$
b0010 =
b0110 >
13
0*
b0000 +
b1111111111111111 ,
#480
0"
0$
#490
1$
b000000001100 ;
b000000001011 9
b0110 =
b0010 >
03
b000000000001 .
#500
0$
#510
1$
b0010 =
b0110 >
13
b0001 +
#520
0$
#530
1$
b000000001101 ;
b000000001100 9
b0110 =
b0010 >
03
b000000000010 .
#540
0$
#550
1$
b0010 =
b0110 >
13
b0010 +
b0000000000000000 ,
#560
0$
#570
1$
b000000001110 ;
b000000001101 9
b0110 =
b0010 >
03
b000000000011 .
#580
0$
#590
1$
b0010 =
b0110 >
13
b0011 +
#600
0$
#610
1$
b000000001111 ;
b000000001110 9
b0110 =
b0010 >
03
b000000000100 .
#620
0$
#630
1$
b0010 =
b0110 >
13
b0100 +
b1111000001000000 ,
#640
0$
#650
1$
b000000010000 ;
b000000001111 9
b0110 =
b0010 >
03
b000000000101 .
#660
0$
#670
1$
b0010 =
b0110 >
13
b0101 +
b1111110110101111 ,
#680
0$
#690
1$
b000000010001 ;
b000000010000 9
b0110 =
b0010 >
03
b000000000110 .
#700
0$
#710
1$
b0010 =
b0110 >
13
b0110 +
b0000110000001111 ,
#720
0$
#730
1$
b000000010010 ;
b000000010001 9
b0110 =
b0010 >
03
b000000000111 .
#740
0$
#750
1$
b0010 =
b0110 >
13
b0111 +
b0000000000000000 ,
#760
0$
#770
1$
b000000010011 ;
b000000010010 9
b0110 =
b0010 >
03
b000000001000 .
#780
0$
#790
1$
b0010 =
b0110 >
13
b1000 +
b0000000000000001 ,
#800
0$
#810
1$
b000000010100 ;
b000000010011 9
b0110 =
b0010 >
03
b000000001001 .
#820
0$
#830
1$
b0010 =
b0110 >
13
b1001 +
b0000000000000000 ,
#840
0$
#850
1$
b000000010101 ;
b000000010100 9
b0110 =
b0001 >
03
b000000001010 .
#860
0$
#870
1$
b0001 =
1*
b000000000000 .
#880
0$
#890
1$
#900
0$
#910
1$
#920
0$
#921
b0100101000000000000000000000000100000001000000000000000000000100000000000000000000001100010000000001001000110100010101100111100011111111111111111111111111111111 (
b0100101000000000 I
b0000000100000000 G
b0000000000000100 F
b0000000000000000 E
b0000110001000000 D
b0001001000110100 C
b0101011001111000 B
1"
b0100101000000000 ,
b0010 >
#930
1$
b0010 =
b0110 >
13
0*
b0000 +
b1111111111111111 ,
#940
0"
0$
#950
1$
b000000010110 ;
b000000000011 8
b000000010101 9
b0110 =
b0010 >
03
b000000000001 .
#960
0$
#970
1$
b0010 =
b0110 >
13
b0001 +
#980
0$
#990
1$
b000000010111 ;
b000000010110 9
b0110 =
b0010 >
03
b000000000010 .
#1000
0$
#1010
1$
b0010 =
b0110 >
13
b0010 +
b0101011001111000 ,
#1020
0$
#1030
1$
b000000011000 ;
b000000010111 9
b0110 =
b0010 >
03
b000000000011 .
#1040
0$
#1050
1$
b0010 =
b0110 >
13
b0011 +
b0001001000110100 ,
#1060
0$
#1070
1$
b000000011001 ;
b000000011000 9
b0110 =
b0010 >
03
b000000000100 .
#1080
0$
#1090
1$
b0010 =
b0110 >
13
b0100 +
b0000110001000000 ,
#1100
0$
#1110
1$
b000000011010 ;
b000000011001 9
b0110 =
b0010 >
03
b000000000101 .
#1120
0$
#1130
1$
b0010 =
b0110 >
13
b0101 +
b0000000000000000 ,
#1140
0$
#1150
1$
b000000011011 ;
b000000011010 9
b0110 =
b0010 >
03
b000000000110 .
#1160
0$
#1170
1$
b0010 =
b0110 >
13
b0110 +
b0000000000000100 ,
#1180
0$
#1190
1$
b000000011100 ;
b000000011011 9
b0110 =
b0010 >
03
b000000000111 .
#1200
0$
#1210
1$
b0010 =
b0110 >
13
b0111 +
b0000000100000000 ,
#1220
0$
#1230
1$
b000000011101 ;
b000000011100 9
b0110 =
b0010 >
03
b000000001000 .
#1240
0$
#1250
1$
b0010 =
b0110 >
13
b1000 +
b0000000000000001 ,
#1260
0$
#1270
1$
b000000011110 ;
b000000011101 9
b0110 =
b0010 >
03
b000000001001 .
#1280
0$
#1290
1$
b0010 =
b0110 >
13
b1001 +
b0100101000000000 ,
#1300
0$
#1310
1$
b000000011111 ;
b000000011110 9
b0110 =
b0001 >
03
b000000001010 .
#1320
0$
#1330
1$
b0001 =
1*
b000000000000 .
#1340
0$
#1350
1$
#1360
0$
#1370
1$
#1380
0$
#1381
b01 &
b000000000001 '
b0011 >
#1390
1$
b0011 =
b0001 >
0*
b01 1
#1400
b00 &
0$
#1410
1$
b000000001011 :
00
b000000010100 9
b0001 =
b00 1
#1420
0$
#1430
1$
#1440
0$
#1441
b10 &
b000000000010 '
b0100 >
#1450
1$
b0100 =
b0101 >
b10 1
#1460
b00 &
0$
#1470
1$
b000000010101 :
b000000001001 -
b000000001010 9
b0101 =
b0111 >
15
0<
b000000001001 ?
#1480
0$
#1490
1$
b0111 =
b1000 >
05
1<
1/
b00 1
#1500
0$
#1510
1$
b1111111111111111 )
b1000 =
b000000000001 .
b0111 >
0/
#1520
0$
#1530
1$
b0111 =
b1000 >
1/
#1540
0$
#1550
1$
b1000 =
b000000000010 .
b0111 >
0/
#1560
0$
#1570
1$
b0111 =
b1000 >
1/
#1580
0$
#1590
1$
b0101011001111000 )
b1000 =
b000000000011 .
b0111 >
0/
#1600
0$
#1610
1$
b0111 =
b1000 >
1/
#1620
0$
#1630
1$
b0001001000110100 )
b1000 =
b000000000100 .
b0111 >
0/
#1640
0$
#1650
1$
b0111 =
b1000 >
1/
#1660
0$
#1670
1$
b0000110001000000 )
b1000 =
b000000000101 .
b0111 >
0/
#1680
0$
#1690
1$
b0111 =
b1000 >
1/
#1700
0$
#1710
1$
b0000000000000000 )
b1000 =
b000000000110 .
b0111 >
0/
#1720
0$
#1730
1$
b0111 =
b1000 >
1/
#1740
0$
#1750
1$
b0000000000000100 )
b1000 =
b000000000111 .
b0111 >
0/
#1760
0$
#1770
1$
b0111 =
b1000 >
1/
#1780
0$
#1790
1$
b0000000100000000 )
b1000 =
b000000001000 .
b0111 >
0/
#1800
0$
#1810
1$
b0111 =
b1000 >
1/
#1820
0$
#1830
1$
b0000000000000001 )
b1000 =
b000000001001 .
b0111 >
0/
#1840
0$
#1850
1$
b0111 =
b1000 >
1/
#1860
0$
#1870
1$
b0100101000000000 )
b1000 =
b000000001010 .
b0001 >
0/
#1880
0$
#1890
1$
b0001 =
b000000000000 .
#1900
0$
#1910
1$
#1920
0$
#1930
1$
#1940
0$
#1950
1$
#1960
0$
#1961
1!
b0100 >
#1970
1$
b0100 =
b0101 >
15
#1980
0!
0$
#1990
1$
b0101 =
b0111 >
0<
b10 1
#2000
0$
#2010
1$
b0111 =
b1000 >
05
1<
1/
b00 1
#2020
0$
#2030
1$
b1111111111111111 )
b1000 =
b000000000001 .
b0111 >
0/
#2040
0$
#2050
1$
b0111 =
b1000 >
1/
#2060
0$
#2070
1$
b1000 =
b000000000010 .
b0111 >
0/
#2080
0$
#2090
1$
b0111 =
b1000 >
1/
#2100
0$
#2110
1$
b0101011001111000 )
b1000 =
b000000000011 .
b0111 >
0/
#2120
0$
#2130
1$
b0111 =
b1000 >
1/
#2140
0$
#2150
1$
b0001001000110100 )
b1000 =
b000000000100 .
b0111 >
0/
#2160
0$
#2170
1$
b0111 =
b1000 >
1/
#2180
0$
#2190
1$
b0000110001000000 )
b1000 =
b000000000101 .
b0111 >
0/
#2200
0$
#2210
1$
b0111 =
b1000 >
1/
#2220
0$
#2230
1$
b0000000000000000 )
b1000 =
b000000000110 .
b0111 >
0/
#2240
0$
#2250
1$
b0111 =
b1000 >
1/
#2260
0$
#2270
1$
b0000000000000100 )
b1000 =
b000000000111 .
b0111 >
0/
#2280
0$
#2290
1$
b0111 =
b1000 >
1/
#2300
0$
#2310
1$
b0000000100000000 )
b1000 =
b000000001000 .
b0111 >
0/
#2320
0$
#2330
1$
b0111 =
b1000 >
1/
#2340
0$
#2350
1$
b0000000000000001 )
b1000 =
b000000001001 .
b0111 >
0/
#2360
0$
#2370
1$
b0111 =
b1000 >
1/
#2380
0$
#2390
1$
b0100101000000000 )
b1000 =
b000000001010 .
b0001 >
0/
#2400
0$
#2410
1$
b0001 =
b000000000000 .
